{values:
	[{"film":"30 Minutes or Less","studio":"Independent","rotten_tomatoes":43,"audience_score":48,"story":"Comedy","genre":"Comedy","number_of_theaters_US_opening_weekend":2888,"box_office_average_per_US_Cinema_opening_weekend":4616,"domestic_gross":37.05,"foreign_gross":3.49,"worldwide_gross":40.55,"budget":28,"profitability":144.81,"opening_weekend":13.33},
	{"film":"50/50","studio":"Independent","rotten_tomatoes":93,"audience_score":93,"story":"Discovery","genre":"Comedy","number_of_theaters_US_opening_weekend":2458,"box_office_average_per_US_Cinema_opening_weekend":3517,"domestic_gross":35.01,"foreign_gross":4.17,"worldwide_gross":39.19,"budget":8,"profitability":489.84,"opening_weekend":8.64},
	{"film":"A Dangerous Method","studio":"Independent","rotten_tomatoes":79,"audience_score":89,"story":"Love","genre":"Drama","number_of_theaters_US_opening_weekend":null,"box_office_average_per_US_Cinema_opening_weekend":null,"domestic_gross":5.70,"foreign_gross":21.76,"worldwide_gross":27.46,"budget":20,"profitability":137.31,"opening_weekend":0.17},
	{"film":"A Very Harold and Kumar Christmas","studio":"Lionsgate","rotten_tomatoes":72,"audience_score":71,"story":"Comedy","genre":"Comedy","number_of_theaters_US_opening_weekend":2875,"box_office_average_per_US_Cinema_opening_weekend":4506,"domestic_gross":35.06,"foreign_gross":0.33,"worldwide_gross":35.39,"budget":19,"profitability":186.25,"opening_weekend":12.95},
	{"film":"Abduction","studio":"Vertigo Entertainment","rotten_tomatoes":4,"audience_score":46,"story":"Maturation","genre":"Action","number_of_theaters_US_opening_weekend":3118,"box_office_average_per_US_Cinema_opening_weekend":3504,"domestic_gross":28.09,"foreign_gross":54.00,"worldwide_gross":82.09,"budget":35,"profitability":234.53,"opening_weekend":10.93},
	{"film":"Anonymous","studio":"Relativity Media","rotten_tomatoes":46,"audience_score":66,"story":"Tragedy","genre":"Drama","number_of_theaters_US_opening_weekend":265,"box_office_average_per_US_Cinema_opening_weekend":3856,"domestic_gross":4.46,"foreign_gross":10.93,"worldwide_gross":15.39,"budget":30,"profitability":51.31,"opening_weekend":1.02},
	{"film":"Another Earth","studio":"Independent","rotten_tomatoes":63,"audience_score":74,"story":"Temptation","genre":"Fantasy","number_of_theaters_US_opening_weekend":null,"box_office_average_per_US_Cinema_opening_weekend":null,"domestic_gross":1.32,"foreign_gross":0.45,"worldwide_gross":1.77,"budget":0.2,"profitability":885.50,"opening_weekend":0.08},
	{"film":"Apollo 18","studio":"Weinstein Company","rotten_tomatoes":23,"audience_score":31,"story":"Monster Force","genre":"Horror","number_of_theaters_US_opening_weekend":3328,"box_office_average_per_US_Cinema_opening_weekend":2615,"domestic_gross":17.69,"foreign_gross":7.88,"worldwide_gross":25.56,"budget":5,"profitability":511.24,"opening_weekend":8.70},
	{"film":"Arthur","studio":"Warner Bros","rotten_tomatoes":26,"audience_score":49,"story":"Sacrifice","genre":"Comedy","number_of_theaters_US_opening_weekend":3276,"box_office_average_per_US_Cinema_opening_weekend":3731,"domestic_gross":33.04,"foreign_gross":12.70,"worldwide_gross":45.74,"budget":40,"profitability":114.34,"opening_weekend":12.22},
	{"film":"Arthur Christmas","studio":"Aardman Animations","rotten_tomatoes":92,"audience_score":82,"story":"Journey and Return","genre":"Animation","number_of_theaters_US_opening_weekend":3376,"box_office_average_per_US_Cinema_opening_weekend":3537,"domestic_gross":46.46,"foreign_gross":100.95,"worldwide_gross":147.41,"budget":150,"profitability":98.27,"opening_weekend":12.07},
	{"film":"Average","studio":"","rotten_tomatoes":55,"audience_score":62,"story":"","genre":"","number_of_theaters_US_opening_weekend":2733,"box_office_average_per_US_Cinema_opening_weekend":8502,"domestic_gross":69,"foreign_gross":110,"worldwide_gross":175,"budget":57,"profitability":306.60,"opening_weekend":22},
	{"film":"Bad Teacher","studio":"Independent","rotten_tomatoes":44,"audience_score":38,"story":"Comedy","genre":"Comedy","number_of_theaters_US_opening_weekend":3049,"box_office_average_per_US_Cinema_opening_weekend":10365,"domestic_gross":100.29,"foreign_gross":115.90,"worldwide_gross":216.20,"budget":20,"profitability":1080.98,"opening_weekend":31.60},
	{"film":"Battle: Los Angeles","studio":"Relativity Media","rotten_tomatoes":35,"audience_score":50,"story":"Monster Force","genre":"Action","number_of_theaters_US_opening_weekend":3417,"box_office_average_per_US_Cinema_opening_weekend":10411,"domestic_gross":83.55,"foreign_gross":128.27,"worldwide_gross":211.82,"budget":70,"profitability":302.60,"opening_weekend":35.57},
	{"film":"Beastly","studio":"CBS Films","rotten_tomatoes":19,"audience_score":50,"story":"Metamorphosis","genre":"Romance","number_of_theaters_US_opening_weekend":1952,"box_office_average_per_US_Cinema_opening_weekend":5047,"domestic_gross":27.87,"foreign_gross":15.30,"worldwide_gross":43.17,"budget":17,"profitability":253.91,"opening_weekend":9.85},
	{"film":"Beginners","studio":"Independent","rotten_tomatoes":84,"audience_score":80,"story":"Love","genre":"Comedy","number_of_theaters_US_opening_weekend":5,"box_office_average_per_US_Cinema_opening_weekend":28268,"domestic_gross":5.79,"foreign_gross":8.52,"worldwide_gross":14.31,"budget":3.2,"profitability":447.19,"opening_weekend":0.14},
	{"film":"Bridesmaids","studio":"Relativity Media","rotten_tomatoes":90,"audience_score":77,"story":"Rivalry","genre":"Comedy","number_of_theaters_US_opening_weekend":2918,"box_office_average_per_US_Cinema_opening_weekend":8995,"domestic_gross":169.11,"foreign_gross":119.28,"worldwide_gross":288.38,"budget":32.5,"profitability":887.33,"opening_weekend":26.25},
	{"film":"Captain America: The First Avenger","studio":"Disney","rotten_tomatoes":78,"audience_score":75,"story":"Metamorphosis","genre":"Action","number_of_theaters_US_opening_weekend":3715,"box_office_average_per_US_Cinema_opening_weekend":17512,"domestic_gross":176.65,"foreign_gross":193.92,"worldwide_gross":370.57,"budget":140,"profitability":264.69,"opening_weekend":65.06},
	{"film":"Cars 2","studio":"Pixar","rotten_tomatoes":38,"audience_score":56,"story":"Fish Out Of Water","genre":"Animation","number_of_theaters_US_opening_weekend":4115,"box_office_average_per_US_Cinema_opening_weekend":16072,"domestic_gross":191.45,"foreign_gross":368.40,"worldwide_gross":559.85,"budget":200,"profitability":279.93,"opening_weekend":66.14},
	{"film":"Cedar Rapids","studio":"20th Century Fox","rotten_tomatoes":86,"audience_score":61,"story":"Maturation","genre":"Comedy","number_of_theaters_US_opening_weekend":15,"box_office_average_per_US_Cinema_opening_weekend":20198,"domestic_gross":6.86,"foreign_gross":null,"worldwide_gross":6.86,"budget":10,"profitability":68.61,"opening_weekend":0.30},
	{"film":"Colombiana","studio":"Sony","rotten_tomatoes":28,"audience_score":55,"story":"Revenge","genre":"Action","number_of_theaters_US_opening_weekend":2614,"box_office_average_per_US_Cinema_opening_weekend":3982,"domestic_gross":36.67,"foreign_gross":24.30,"worldwide_gross":60.97,"budget":40,"profitability":152.41,"opening_weekend":10.41},
	{"film":"Conan the Barbarian","studio":"Lionsgate","rotten_tomatoes":22,"audience_score":34,"story":"Quest","genre":"Action","number_of_theaters_US_opening_weekend":3015,"box_office_average_per_US_Cinema_opening_weekend":3324,"domestic_gross":21.30,"foreign_gross":27.50,"worldwide_gross":48.80,"budget":90,"profitability":54.22,"opening_weekend":10.02},
	{"film":"Contagion","studio":"Warner Bros","rotten_tomatoes":84,"audience_score":63,"story":"The Riddle","genre":"Thriller","number_of_theaters_US_opening_weekend":3222,"box_office_average_per_US_Cinema_opening_weekend":6935,"domestic_gross":75.66,"foreign_gross":59.80,"worldwide_gross":135.46,"budget":60,"profitability":225.76,"opening_weekend":22.40},
	{"film":"Cowboys and Aliens","studio":"Universal","rotten_tomatoes":44,"audience_score":50,"story":"Monster Force","genre":"Action","number_of_theaters_US_opening_weekend":3750,"box_office_average_per_US_Cinema_opening_weekend":9715,"domestic_gross":100.24,"foreign_gross":74.58,"worldwide_gross":174.82,"budget":163,"profitability":107.25,"opening_weekend":36.43},
	{"film":"Crazy Stupid Love","studio":"Warner Bros","rotten_tomatoes":78,"audience_score":81,"story":"Discovery","genre":"Romance","number_of_theaters_US_opening_weekend":3020,"box_office_average_per_US_Cinema_opening_weekend":6326,"domestic_gross":84.35,"foreign_gross":58.50,"worldwide_gross":142.85,"budget":50,"profitability":285.70,"opening_weekend":19.10},
	{"film":"Diary of a Wimpy Kid 2: Rodrick Rules","studio":"20th Century Fox","rotten_tomatoes":47,"audience_score":63,"story":"Comedy","genre":"Comedy","number_of_theaters_US_opening_weekend":3167,"box_office_average_per_US_Cinema_opening_weekend":7500,"domestic_gross":52.70,"foreign_gross":19.72,"worldwide_gross":72.42,"budget":21,"profitability":344.84,"opening_weekend":23.75},
	{"film":"Dolphin Tale","studio":"Independent","rotten_tomatoes":84,"audience_score":81,"story":"Quest","genre":"Drama","number_of_theaters_US_opening_weekend":3507,"box_office_average_per_US_Cinema_opening_weekend":5461,"domestic_gross":72.29,"foreign_gross":23.12,"worldwide_gross":95.41,"budget":37,"profitability":257.86,"opening_weekend":19.15},
	{"film":"Don't Be Afraid Of The Dark","studio":"Miramax Films","rotten_tomatoes":59,"audience_score":37,"story":"Monster Force","genre":"Horror","number_of_theaters_US_opening_weekend":2760,"box_office_average_per_US_Cinema_opening_weekend":3089,"domestic_gross":24.05,"foreign_gross":12.95,"worldwide_gross":36.99,"budget":25,"profitability":147.97,"opening_weekend":8.53},
	{"film":"Dream House","studio":"Morgan Creek Productions","rotten_tomatoes":7,"audience_score":38,"story":"The Riddle","genre":"Horror","number_of_theaters_US_opening_weekend":2661,"box_office_average_per_US_Cinema_opening_weekend":3055,"domestic_gross":21.30,"foreign_gross":17.20,"worldwide_gross":38.50,"budget":50,"profitability":77.00,"opening_weekend":8.13},
	{"film":"Drive","studio":"Independent","rotten_tomatoes":93,"audience_score":79,"story":"Rivalry","genre":"Thriller","number_of_theaters_US_opening_weekend":2886,"box_office_average_per_US_Cinema_opening_weekend":3929,"domestic_gross":35.06,"foreign_gross":41.11,"worldwide_gross":76.17,"budget":15,"profitability":507.83,"opening_weekend":11.34},
	{"film":"Drive Angry","studio":"Independent","rotten_tomatoes":45,"audience_score":38,"story":"Rescue","genre":"Action","number_of_theaters_US_opening_weekend":2290,"box_office_average_per_US_Cinema_opening_weekend":2265,"domestic_gross":10.72,"foreign_gross":18.21,"worldwide_gross":28.93,"budget":45,"profitability":64.29,"opening_weekend":5.19},
	{"film":"Dylan Dog: Dead of Night","studio":"Independent","rotten_tomatoes":6,"audience_score":28,"story":"Monster Force","genre":"Horror","number_of_theaters_US_opening_weekend":null,"box_office_average_per_US_Cinema_opening_weekend":null,"domestic_gross":1.19,"foreign_gross":3.45,"worldwide_gross":4.63,"budget":20,"profitability":23.17,"opening_weekend":0.75},
	{"film":"Everything Must Go","studio":"Reliance Entertainment","rotten_tomatoes":74,"audience_score":53,"story":"Discovery","genre":"Drama","number_of_theaters_US_opening_weekend":218,"box_office_average_per_US_Cinema_opening_weekend":3652,"domestic_gross":2.71,"foreign_gross":null,"worldwide_gross":2.71,"budget":5,"profitability":54.22,"opening_weekend":0.79},
	{"film":"Extremely Loud and Incredibly Close","studio":"Warner Bros.","rotten_tomatoes":47,"audience_score":62,"story":"","genre":"Drama","number_of_theaters_US_opening_weekend":2630,"box_office_average_per_US_Cinema_opening_weekend":3820,"domestic_gross":31.847,"foreign_gross":23.4,"worldwide_gross":55.247,"budget":40,"profitability":138.12,"opening_weekend":10.04},
	{"film":"Fast Five","studio":"Universal","rotten_tomatoes":78,"audience_score":83,"story":"Escape","genre":"Action","number_of_theaters_US_opening_weekend":3644,"box_office_average_per_US_Cinema_opening_weekend":23655,"domestic_gross":209.4,"foreign_gross":416.3,"worldwide_gross":626.13,"budget":125,"profitability":500.90,"opening_weekend":86.19},
	{"film":"Final Destination 5","studio":"New Line Cinema","rotten_tomatoes":61,"audience_score":56,"story":"Monster Force","genre":"Horror","number_of_theaters_US_opening_weekend":3155,"box_office_average_per_US_Cinema_opening_weekend":5715,"domestic_gross":42.59,"foreign_gross":115.30,"worldwide_gross":157.89,"budget":40,"profitability":394.72,"opening_weekend":18.03},
	{"film":"Footloose","studio":"Spyglass Entertainment","rotten_tomatoes":71,"audience_score":71,"story":"Transformation","genre":"Drama","number_of_theaters_US_opening_weekend":3549,"box_office_average_per_US_Cinema_opening_weekend":4383,"domestic_gross":51.80,"foreign_gross":11.74,"worldwide_gross":63.54,"budget":24,"profitability":264.76,"opening_weekend":15.56},
	{"film":"Friends With Benefits","studio":"Warner Bros","rotten_tomatoes":71,"audience_score":68,"story":"Temptation","genre":"Romance","number_of_theaters_US_opening_weekend":2926,"box_office_average_per_US_Cinema_opening_weekend":6364,"domestic_gross":55.80,"foreign_gross":93.74,"worldwide_gross":149.54,"budget":35,"profitability":427.26,"opening_weekend":18.62},
	{"film":"Fright Night","studio":"DreamWorks","rotten_tomatoes":75,"audience_score":68,"story":"Rivalry","genre":"Horror","number_of_theaters_US_opening_weekend":3114,"box_office_average_per_US_Cinema_opening_weekend":2477,"domestic_gross":18.30,"foreign_gross":22.70,"worldwide_gross":41.00,"budget":30,"profitability":136.67,"opening_weekend":7.71},
	{"film":"Gnomeo and Juliet","studio":"Disney","rotten_tomatoes":56,"audience_score":52,"story":"Love","genre":"Animation","number_of_theaters_US_opening_weekend":2994,"box_office_average_per_US_Cinema_opening_weekend":8469,"domestic_gross":99.97,"foreign_gross":94.00,"worldwide_gross":193.97,"budget":36,"profitability":538.80,"opening_weekend":25.36},
	{"film":"Green Lantern","studio":"Warner Bros","rotten_tomatoes":27,"audience_score":48,"story":"Metamorphosis","genre":"Action","number_of_theaters_US_opening_weekend":3816,"box_office_average_per_US_Cinema_opening_weekend":13935,"domestic_gross":116.60,"foreign_gross":103.25,"worldwide_gross":219.85,"budget":200,"profitability":109.93,"opening_weekend":53.17},
	{"film":"Hall Pass","studio":"Warner Bros","rotten_tomatoes":35,"audience_score":44,"story":"Temptation","genre":"Comedy","number_of_theaters_US_opening_weekend":2950,"box_office_average_per_US_Cinema_opening_weekend":4588,"domestic_gross":45.06,"foreign_gross":38.10,"worldwide_gross":83.16,"budget":36,"profitability":231.00,"opening_weekend":13.54},
	{"film":"Hanna","studio":"Universal","rotten_tomatoes":71,"audience_score":67,"story":"Quest","genre":"Action","number_of_theaters_US_opening_weekend":2535,"box_office_average_per_US_Cinema_opening_weekend":4880,"domestic_gross":40.26,"foreign_gross":23.52,"worldwide_gross":63.78,"budget":30,"profitability":212.60,"opening_weekend":12.37},
	{"film":"Happy Feet 2","studio":"Village Roadshow Pictures","rotten_tomatoes":41,"audience_score":59,"story":"Journey and Return","genre":"Animation","number_of_theaters_US_opening_weekend":3606,"box_office_average_per_US_Cinema_opening_weekend":5889,"domestic_gross":64.01,"foreign_gross":86.40,"worldwide_gross":150.41,"budget":135,"profitability":111.41,"opening_weekend":21.24},
	{"film":"Harry Potter and the Deathly Hallows Part 2","studio":"Warner Bros","rotten_tomatoes":96,"audience_score":92,"story":"Rivalry","genre":"Fantasy","number_of_theaters_US_opening_weekend":4375,"box_office_average_per_US_Cinema_opening_weekend":38672,"domestic_gross":381.01,"foreign_gross":960.50,"worldwide_gross":1341.51,"budget":125,"profitability":1073.21,"opening_weekend":169.19},
	{"film":"Hop","studio":"Relativity Media","rotten_tomatoes":26,"audience_score":50,"story":"Fish Out Of Water","genre":"Animation","number_of_theaters_US_opening_weekend":3579,"box_office_average_per_US_Cinema_opening_weekend":10490,"domestic_gross":108.09,"foreign_gross":75.87,"worldwide_gross":183.95,"budget":63,"profitability":291.99,"opening_weekend":37.54},
	{"film":"Horrible Bosses","studio":"Warner Bros","rotten_tomatoes":69,"audience_score":72,"story":"Revenge","genre":"Comedy","number_of_theaters_US_opening_weekend":3040,"box_office_average_per_US_Cinema_opening_weekend":9310,"domestic_gross":117.54,"foreign_gross":92.10,"worldwide_gross":209.64,"budget":35,"profitability":598.97,"opening_weekend":28.30},
	{"film":"Hugo","studio":"Paramount","rotten_tomatoes":93,"audience_score":84,"story":"","genre":"Adventure","number_of_theaters_US_opening_weekend":1277,"box_office_average_per_US_Cinema_opening_weekend":8899,"domestic_gross":73.864,"foreign_gross":111.905,"worldwide_gross":185.769,"budget":150,"profitability":123.85,"opening_weekend":11.36},
	{"film":"I Am Number Four","studio":"Paramount","rotten_tomatoes":32,"audience_score":57,"story":"Maturation","genre":"Thriller","number_of_theaters_US_opening_weekend":3154,"box_office_average_per_US_Cinema_opening_weekend":6167,"domestic_gross":55.10,"foreign_gross":94.78,"worldwide_gross":149.88,"budget":60,"profitability":249.80,"opening_weekend":19.45},
	{"film":"Immortals","studio":"Relativity Media","rotten_tomatoes":36,"audience_score":59,"story":"Revenge","genre":"Action","number_of_theaters_US_opening_weekend":3112,"box_office_average_per_US_Cinema_opening_weekend":10349,"domestic_gross":83.50,"foreign_gross":143.40,"worldwide_gross":226.90,"budget":75,"profitability":302.54,"opening_weekend":32.21},
	{"film":"In Time","studio":"Regency Enterprises","rotten_tomatoes":38,"audience_score":55,"story":"The Riddle","genre":"Thriller","number_of_theaters_US_opening_weekend":3122,"box_office_average_per_US_Cinema_opening_weekend":3860,"domestic_gross":37.52,"foreign_gross":136.41,"worldwide_gross":173.93,"budget":40,"profitability":434.83,"opening_weekend":12.05},
	{"film":"Insidious","studio":"Sony","rotten_tomatoes":67,"audience_score":65,"story":"Monster Force","genre":"Horror","number_of_theaters_US_opening_weekend":2408,"box_office_average_per_US_Cinema_opening_weekend":5511,"domestic_gross":54.01,"foreign_gross":43.00,"worldwide_gross":97.01,"budget":1.5,"profitability":6467.27,"opening_weekend":13.27},
	{"film":"J.Edgar","studio":"Warner Bros","rotten_tomatoes":42,"audience_score":84,"story":"Wretched Excess","genre":"Drama","number_of_theaters_US_opening_weekend":1910,"box_office_average_per_US_Cinema_opening_weekend":5873,"domestic_gross":37.31,"foreign_gross":47.30,"worldwide_gross":84.61,"budget":35,"profitability":241.73,"opening_weekend":11.22},
	{"film":"Jack and Jill","studio":"Happy Madison","rotten_tomatoes":4,"audience_score":59,"story":"Comedy","genre":"Comedy","number_of_theaters_US_opening_weekend":3438,"box_office_average_per_US_Cinema_opening_weekend":7273,"domestic_gross":74.16,"foreign_gross":75.52,"worldwide_gross":149.68,"budget":79,"profitability":189.47,"opening_weekend":25.00},
	{"film":"Jane Eyre","studio":"Universal","rotten_tomatoes":85,"audience_score":77,"story":"Love","genre":"Romance","number_of_theaters_US_opening_weekend":null,"box_office_average_per_US_Cinema_opening_weekend":null,"domestic_gross":11.24,"foreign_gross":23.47,"worldwide_gross":34.71,"budget":null,"profitability":null,"opening_weekend":0.18},
	{"film":"Johnny English Reborn","studio":"Relativity Media","rotten_tomatoes":38,"audience_score":55,"story":"Comedy","genre":"Comedy","number_of_theaters_US_opening_weekend":1552,"box_office_average_per_US_Cinema_opening_weekend":2470,"domestic_gross":8.31,"foreign_gross":151.77,"worldwide_gross":160.08,"budget":45,"profitability":355.73,"opening_weekend":3.83},
	{"film":"Just Go With It","studio":"Happy Madison","rotten_tomatoes":19,"audience_score":63,"story":"Comedy","genre":"Romance","number_of_theaters_US_opening_weekend":3548,"box_office_average_per_US_Cinema_opening_weekend":8601,"domestic_gross":103.03,"foreign_gross":111.92,"worldwide_gross":214.95,"budget":80,"profitability":268.68,"opening_weekend":30.51},
	{"film":"Killer Elite","studio":"Independent","rotten_tomatoes":25,"audience_score":48,"story":"Rivalry","genre":"Action","number_of_theaters_US_opening_weekend":2986,"box_office_average_per_US_Cinema_opening_weekend":3132,"domestic_gross":25.12,"foreign_gross":31.26,"worldwide_gross":56.38,"budget":70,"profitability":80.55,"opening_weekend":9.35},
	{"film":"Kung Fu Panda 2","studio":"DreamWorks Animation","rotten_tomatoes":82,"audience_score":80,"story":"Rivalry","genre":"Animation","number_of_theaters_US_opening_weekend":3925,"box_office_average_per_US_Cinema_opening_weekend":12142,"domestic_gross":165.25,"foreign_gross":500.44,"worldwide_gross":665.69,"budget":150,"profitability":443.79,"opening_weekend":47.66},
	{"film":"Larry Crowne","studio":"Universal","rotten_tomatoes":34,"audience_score":46,"story":"Discovery","genre":"Drama","number_of_theaters_US_opening_weekend":2973,"box_office_average_per_US_Cinema_opening_weekend":4405,"domestic_gross":35.61,"foreign_gross":36.40,"worldwide_gross":72.01,"budget":30,"profitability":240.03,"opening_weekend":13.10},
	{"film":"Limitless","studio":"Virgin","rotten_tomatoes":69,"audience_score":73,"story":"Wretched Excess","genre":"Thriller","number_of_theaters_US_opening_weekend":2756,"box_office_average_per_US_Cinema_opening_weekend":6860,"domestic_gross":79.25,"foreign_gross":82.60,"worldwide_gross":161.85,"budget":27,"profitability":599.44,"opening_weekend":18.91},
	{"film":"Machine Gun Preacher","studio":"Lionsgate","rotten_tomatoes":29,"audience_score":71,"story":"Transformation","genre":"Action","number_of_theaters_US_opening_weekend":null,"box_office_average_per_US_Cinema_opening_weekend":null,"domestic_gross":0.54,"foreign_gross":0.57,"worldwide_gross":1.10,"budget":30,"profitability":3.68,"opening_weekend":0.05},
	{"film":"Margin Call","studio":"Independent","rotten_tomatoes":86,"audience_score":73,"story":"Sacrifice","genre":"Thriller","number_of_theaters_US_opening_weekend":null,"box_office_average_per_US_Cinema_opening_weekend":null,"domestic_gross":5.35,"foreign_gross":14.15,"worldwide_gross":19.50,"budget":3.5,"profitability":557.26,"opening_weekend":0.56},
	{"film":"Mars Needs Moms","studio":"Disney","rotten_tomatoes":36,"audience_score":43,"story":"Rescue","genre":"Animation","number_of_theaters_US_opening_weekend":3117,"box_office_average_per_US_Cinema_opening_weekend":2218,"domestic_gross":21.39,"foreign_gross":17.60,"worldwide_gross":38.99,"budget":150,"profitability":25.99,"opening_weekend":6.91},
	{"film":"Midnight in Paris","studio":"Sony","rotten_tomatoes":93,"audience_score":84,"story":"Love","genre":"Romance","number_of_theaters_US_opening_weekend":944,"box_office_average_per_US_Cinema_opening_weekend":6177,"domestic_gross":56.82,"foreign_gross":94.30,"worldwide_gross":151.12,"budget":17,"profitability":888.94,"opening_weekend":5.83},
	{"film":"Mission Impossible 4","studio":"Paramount","rotten_tomatoes":93,"audience_score":86,"story":"Pursuit","genre":"Action","number_of_theaters_US_opening_weekend":3448,"box_office_average_per_US_Cinema_opening_weekend":8672,"domestic_gross":209.39,"foreign_gross":485.32,"worldwide_gross":694.71,"budget":145,"profitability":479.11,"opening_weekend":29.55},
	{"film":"Moneyball","studio":"Columbia","rotten_tomatoes":95,"audience_score":89,"story":"Underdog","genre":"Drama","number_of_theaters_US_opening_weekend":2993,"box_office_average_per_US_Cinema_opening_weekend":6516,"domestic_gross":75.60,"foreign_gross":34.60,"worldwide_gross":110.20,"budget":50,"profitability":220.40,"opening_weekend":19.50},
	{"film":"Monte Carlo","studio":"20th Century Fox","rotten_tomatoes":38,"audience_score":50,"story":"Love","genre":"Romance","number_of_theaters_US_opening_weekend":2473,"box_office_average_per_US_Cinema_opening_weekend":3014,"domestic_gross":23.19,"foreign_gross":16.48,"worldwide_gross":39.67,"budget":20,"profitability":198.33,"opening_weekend":7.45},
	{"film":"Mr. Popper's Penguins","studio":"20th Century Fox","rotten_tomatoes":47,"audience_score":54,"story":"Discovery","genre":"Comedy","number_of_theaters_US_opening_weekend":3339,"box_office_average_per_US_Cinema_opening_weekend":5524,"domestic_gross":68.22,"foreign_gross":119.14,"worldwide_gross":187.36,"budget":55,"profitability":340.66,"opening_weekend":18.45},
	{"film":"My Week with Marilyn","studio":"The Weinstein Company","rotten_tomatoes":83,"audience_score":84,"story":"Love","genre":"Drama","number_of_theaters_US_opening_weekend":247,"box_office_average_per_US_Cinema_opening_weekend":7174,"domestic_gross":14.60,"foreign_gross":20.46,"worldwide_gross":35.06,"budget":10,"profitability":350.57,"opening_weekend":1.75},
	{"film":"New Year's Eve","studio":"Warner Bros.","rotten_tomatoes":8,"audience_score":48,"story":"Love","genre":"Romance","number_of_theaters_US_opening_weekend":3505,"box_office_average_per_US_Cinema_opening_weekend":3714,"domestic_gross":54.54,"foreign_gross":87.5,"worldwide_gross":142.04,"budget":56,"profitability":253.64,"opening_weekend":13.01},
	{"film":"No Strings Attached","studio":"Spyglass Entertainment","rotten_tomatoes":49,"audience_score":57,"story":"Comedy","genre":"Comedy","number_of_theaters_US_opening_weekend":3018,"box_office_average_per_US_Cinema_opening_weekend":6512,"domestic_gross":70.66,"foreign_gross":78.57,"worldwide_gross":149.23,"budget":25,"profitability":596.91,"opening_weekend":19.70},
	{"film":"One Day","studio":"Independent","rotten_tomatoes":37,"audience_score":54,"story":"Love","genre":"Romance","number_of_theaters_US_opening_weekend":1719,"box_office_average_per_US_Cinema_opening_weekend":2955,"domestic_gross":13.84,"foreign_gross":45.55,"worldwide_gross":59.39,"budget":15,"profitability":395.92,"opening_weekend":5.08},
	{"film":"Our Idiot Brother","studio":"The Weinstein Company","rotten_tomatoes":68,"audience_score":79,"story":"Comedy","genre":"Comedy","number_of_theaters_US_opening_weekend":2555,"box_office_average_per_US_Cinema_opening_weekend":2744,"domestic_gross":24.82,"foreign_gross":null,"worldwide_gross":24.82,"budget":5,"profitability":496.32,"opening_weekend":7.01},
	{"film":"Paranormal Activity 3","studio":"Independent","rotten_tomatoes":68,"audience_score":58,"story":"Monster Force","genre":"Horror","number_of_theaters_US_opening_weekend":3321,"box_office_average_per_US_Cinema_opening_weekend":15829,"domestic_gross":104.03,"foreign_gross":103.01,"worldwide_gross":207.04,"budget":5,"profitability":4140.78,"opening_weekend":52.57},
	{"film":"Paul","studio":"Relativity","rotten_tomatoes":72,"audience_score":70,"story":"Comedy","genre":"Comedy","number_of_theaters_US_opening_weekend":2802,"box_office_average_per_US_Cinema_opening_weekend":4655,"domestic_gross":37.41,"foreign_gross":60.57,"worldwide_gross":97.98,"budget":40,"profitability":244.96,"opening_weekend":13.04},
	{"film":"Pirates of the Caribbean:\nOn Stranger Tides","studio":"Disney","rotten_tomatoes":34,"audience_score":61,"story":"Quest","genre":"Action","number_of_theaters_US_opening_weekend":4155,"box_office_average_per_US_Cinema_opening_weekend":21697,"domestic_gross":241.07,"foreign_gross":804.64,"worldwide_gross":1045.71,"budget":250,"profitability":418.28,"opening_weekend":90.15},
	{"film":"Priest","studio":"Sony","rotten_tomatoes":17,"audience_score":37,"story":"Monster Force","genre":"Action","number_of_theaters_US_opening_weekend":2864,"box_office_average_per_US_Cinema_opening_weekend":5221,"domestic_gross":29.14,"foreign_gross":49.17,"worldwide_gross":78.31,"budget":60,"profitability":130.51,"opening_weekend":14.95},
	{"film":"Puss In Boots","studio":"DreamWorks","rotten_tomatoes":83,"audience_score":76,"story":"Quest","genre":"Animation","number_of_theaters_US_opening_weekend":3952,"box_office_average_per_US_Cinema_opening_weekend":8623,"domestic_gross":149.26,"foreign_gross":405.73,"worldwide_gross":554.99,"budget":130,"profitability":426.91,"opening_weekend":34.08},
	{"film":"Rango","studio":"Paramount","rotten_tomatoes":88,"audience_score":69,"story":"Fish Out Of Water","genre":"Animation","number_of_theaters_US_opening_weekend":3917,"box_office_average_per_US_Cinema_opening_weekend":9722,"domestic_gross":123.48,"foreign_gross":122.25,"worldwide_gross":245.72,"budget":135,"profitability":182.02,"opening_weekend":38.08},
	{"film":"Real Steel","studio":"DreamWorks Pictures","rotten_tomatoes":58,"audience_score":81,"story":"Underdog","genre":"Action","number_of_theaters_US_opening_weekend":3440,"box_office_average_per_US_Cinema_opening_weekend":7942,"domestic_gross":85.47,"foreign_gross":213.80,"worldwide_gross":299.27,"budget":110,"profitability":272.06,"opening_weekend":27.32},
	{"film":"Red Riding Hood","studio":"Warner Bros","rotten_tomatoes":11,"audience_score":41,"story":"Monster Force","genre":"Horror","number_of_theaters_US_opening_weekend":3030,"box_office_average_per_US_Cinema_opening_weekend":4622,"domestic_gross":37.66,"foreign_gross":51.50,"worldwide_gross":89.16,"budget":42,"profitability":212.29,"opening_weekend":14.01},
	{"film":"Red State","studio":"Independent","rotten_tomatoes":57,"audience_score":59,"story":"Escape","genre":"Horror","number_of_theaters_US_opening_weekend":null,"box_office_average_per_US_Cinema_opening_weekend":null,"domestic_gross":1.10,"foreign_gross":null,"worldwide_gross":1.10,"budget":4,"profitability":27.60,"opening_weekend":null},
	{"film":"Rio","studio":"20th Century Fox","rotten_tomatoes":71,"audience_score":73,"story":"Quest","genre":"Animation","number_of_theaters_US_opening_weekend":3826,"box_office_average_per_US_Cinema_opening_weekend":10252,"domestic_gross":143.62,"foreign_gross":341.02,"worldwide_gross":484.63,"budget":90,"profitability":538.48,"opening_weekend":39.23},
	{"film":"Rise of the Planet of the Apes","studio":"20th Century Fox","rotten_tomatoes":83,"audience_score":87,"story":"Revenge","genre":"Action","number_of_theaters_US_opening_weekend":3648,"box_office_average_per_US_Cinema_opening_weekend":15024,"domestic_gross":176.70,"foreign_gross":305.04,"worldwide_gross":481.74,"budget":93,"profitability":518.00,"opening_weekend":54.81},
	{"film":"Sanctum","studio":"Relativity Media","rotten_tomatoes":30,"audience_score":39,"story":"Quest","genre":"Action","number_of_theaters_US_opening_weekend":2787,"box_office_average_per_US_Cinema_opening_weekend":3390,"domestic_gross":23.21,"foreign_gross":85.40,"worldwide_gross":108.61,"budget":30,"profitability":362.03,"opening_weekend":9.40},
	{"film":"Scream 4","studio":"Weinstein Company","rotten_tomatoes":58,"audience_score":57,"story":"Monster Force","genre":"Horror","number_of_theaters_US_opening_weekend":3305,"box_office_average_per_US_Cinema_opening_weekend":5656,"domestic_gross":38.18,"foreign_gross":58.96,"worldwide_gross":97.14,"budget":40,"profitability":242.84,"opening_weekend":18.69},
	{"film":"Season Of The Witch","studio":"Relativity","rotten_tomatoes":10,"audience_score":32,"story":"Monster Force","genre":"Action","number_of_theaters_US_opening_weekend":2816,"box_office_average_per_US_Cinema_opening_weekend":3769,"domestic_gross":24.83,"foreign_gross":66.80,"worldwide_gross":91.63,"budget":40,"profitability":229.07,"opening_weekend":10.60},
	{"film":"Shame","studio":"Independent","rotten_tomatoes":80,"audience_score":80,"story":"","genre":"Drama","number_of_theaters_US_opening_weekend":10,"box_office_average_per_US_Cinema_opening_weekend":34952,"domestic_gross":3.09,"foreign_gross":13.784,"worldwide_gross":16.874,"budget":6.5,"profitability":259.60,"opening_weekend":0.34},
	{"film":"Shark Night 3D","studio":"Relativity","rotten_tomatoes":16,"audience_score":25,"story":"Escape","genre":"Horror","number_of_theaters_US_opening_weekend":2806,"box_office_average_per_US_Cinema_opening_weekend":2995,"domestic_gross":18.88,"foreign_gross":21.26,"worldwide_gross":40.14,"budget":25,"profitability":160.54,"opening_weekend":8.40},
	{"film":"Sherlock Holmes 2","studio":"Warner Bros","rotten_tomatoes":60,"audience_score":79,"story":"Pursuit","genre":"Action","number_of_theaters_US_opening_weekend":3703,"box_office_average_per_US_Cinema_opening_weekend":10704,"domestic_gross":186.85,"foreign_gross":358.6,"worldwide_gross":545.45,"budget":125,"profitability":436.36,"opening_weekend":39.63},
	{"film":"Something Borrowed","studio":"Independent","rotten_tomatoes":null,"audience_score":null,"story":"Love","genre":"Romance","number_of_theaters_US_opening_weekend":2904,"box_office_average_per_US_Cinema_opening_weekend":4802,"domestic_gross":39.05,"foreign_gross":21.14,"worldwide_gross":60.18,"budget":35,"profitability":171.95,"opening_weekend":13.95},
	{"film":"Soul Surfer","studio":"Sony","rotten_tomatoes":46,"audience_score":79,"story":"Underdog","genre":"Drama","number_of_theaters_US_opening_weekend":2214,"box_office_average_per_US_Cinema_opening_weekend":4789,"domestic_gross":43.85,"foreign_gross":3.24,"worldwide_gross":47.09,"budget":18,"profitability":261.60,"opening_weekend":10.60},
	{"film":"Source Code","studio":"Summit Entertainment","rotten_tomatoes":92,"audience_score":81,"story":"The Riddle","genre":"Thriller","number_of_theaters_US_opening_weekend":2961,"box_office_average_per_US_Cinema_opening_weekend":5002,"domestic_gross":54.71,"foreign_gross":92.62,"worldwide_gross":147.33,"budget":32,"profitability":460.41,"opening_weekend":14.81},
	{"film":"Spy Kids: All The Time in the World","studio":"Weinstein Company","rotten_tomatoes":22,"audience_score":40,"story":"Quest","genre":"Action","number_of_theaters_US_opening_weekend":3295,"box_office_average_per_US_Cinema_opening_weekend":3534,"domestic_gross":38.54,"foreign_gross":47.03,"worldwide_gross":85.56,"budget":27,"profitability":316.90,"opening_weekend":11.64},
	{"film":"Sucker Punch","studio":"Legendary Pictures","rotten_tomatoes":23,"audience_score":48,"story":"Quest","genre":"Action","number_of_theaters_US_opening_weekend":3033,"box_office_average_per_US_Cinema_opening_weekend":6284,"domestic_gross":36.39,"foreign_gross":53.40,"worldwide_gross":89.79,"budget":82,"profitability":109.50,"opening_weekend":19.06},
	{"film":"Super 8","studio":"Paramount","rotten_tomatoes":82,"audience_score":78,"story":"Monster Force","genre":"Horror","number_of_theaters_US_opening_weekend":3379,"box_office_average_per_US_Cinema_opening_weekend":10492,"domestic_gross":127.00,"foreign_gross":133.09,"worldwide_gross":260.10,"budget":50,"profitability":520.19,"opening_weekend":35.45},
	{"film":"Take Me Home Tonight","studio":"Relativity","rotten_tomatoes":28,"audience_score":46,"story":"Discovery","genre":"Comedy","number_of_theaters_US_opening_weekend":2003,"box_office_average_per_US_Cinema_opening_weekend":1730,"domestic_gross":6.93,"foreign_gross":null,"worldwide_gross":6.93,"budget":25,"profitability":27.71,"opening_weekend":3.46},
	{"film":"Take Shelter","studio":"Independent","rotten_tomatoes":92,"audience_score":85,"story":"Sacrifice","genre":"Drama","number_of_theaters_US_opening_weekend":null,"box_office_average_per_US_Cinema_opening_weekend":null,"domestic_gross":1.73,"foreign_gross":1.40,"worldwide_gross":3.13,"budget":5,"profitability":62.52,"opening_weekend":0.05},
	{"film":"The Adjustment Bureau","studio":"Independent","rotten_tomatoes":72,"audience_score":67,"story":"Sacrifice","genre":"Thriller","number_of_theaters_US_opening_weekend":2840,"box_office_average_per_US_Cinema_opening_weekend":7450,"domestic_gross":62.50,"foreign_gross":65.37,"worldwide_gross":127.87,"budget":50.2,"profitability":254.72,"opening_weekend":21.16},
	{"film":"The Adventures of Tintin","studio":"Paramount","rotten_tomatoes":74,"audience_score":78,"story":"Quest","genre":"Adventure","number_of_theaters_US_opening_weekend":3087,"box_office_average_per_US_Cinema_opening_weekend":3149,"domestic_gross":77.591,"foreign_gross":296.402,"worldwide_gross":373.993,"budget":130,"profitability":287.69,"opening_weekend":9.72},
	{"film":"The Artist","studio":"Weinstein Company","rotten_tomatoes":97,"audience_score":91,"story":"","genre":"Drama","number_of_theaters_US_opening_weekend":662,"box_office_average_per_US_Cinema_opening_weekend":3583,"domestic_gross":44.671,"foreign_gross":88.761,"worldwide_gross":133.432,"budget":16,"profitability":833.95,"opening_weekend":2.37},
	{"film":"The Beaver","studio":"Summit Entertainment","rotten_tomatoes":62,"audience_score":57,"story":"Transformation","genre":"Drama","number_of_theaters_US_opening_weekend":22,"box_office_average_per_US_Cinema_opening_weekend":4890,"domestic_gross":0.97,"foreign_gross":5.40,"worldwide_gross":6.37,"budget":21,"profitability":30.33,"opening_weekend":0.11},
	{"film":"The Big Year","studio":"Independent","rotten_tomatoes":38,"audience_score":62,"story":"Transformation","genre":"Comedy","number_of_theaters_US_opening_weekend":2150,"box_office_average_per_US_Cinema_opening_weekend":1513,"domestic_gross":7.20,"foreign_gross":0.24,"worldwide_gross":7.45,"budget":41,"profitability":18.17,"opening_weekend":3.25},
	{"film":"The Change Up","studio":"Relativity Media","rotten_tomatoes":24,"audience_score":53,"story":"Metamorphosis","genre":"Comedy","number_of_theaters_US_opening_weekend":2913,"box_office_average_per_US_Cinema_opening_weekend":4645,"domestic_gross":37.08,"foreign_gross":38.37,"worldwide_gross":75.45,"budget":52,"profitability":145.09,"opening_weekend":13.53},
	{"film":"The Company Men","studio":"Weinstein Company","rotten_tomatoes":66,"audience_score":55,"story":"Discovery","genre":"Drama","number_of_theaters_US_opening_weekend":106,"box_office_average_per_US_Cinema_opening_weekend":6111,"domestic_gross":4.44,"foreign_gross":0.44,"worldwide_gross":4.88,"budget":15,"profitability":32.55,"opening_weekend":0.64},
	{"film":"The Conspirator","studio":"Independent","rotten_tomatoes":56,"audience_score":65,"story":"Underdog","genre":"Drama","number_of_theaters_US_opening_weekend":707,"box_office_average_per_US_Cinema_opening_weekend":4960,"domestic_gross":11.54,"foreign_gross":3.94,"worldwide_gross":15.48,"budget":25,"profitability":61.91,"opening_weekend":3.51},
	{"film":"The Debt","studio":"Universal","rotten_tomatoes":76,"audience_score":70,"story":"Pursuit","genre":"Thriller","number_of_theaters_US_opening_weekend":1826,"box_office_average_per_US_Cinema_opening_weekend":5427,"domestic_gross":31.18,"foreign_gross":14.46,"worldwide_gross":45.64,"budget":20,"profitability":228.18,"opening_weekend":9.91},
	{"film":"The Descendants","studio":"20th Century Fox","rotten_tomatoes":89,"audience_score":88,"story":"Discovery","genre":"Drama","number_of_theaters_US_opening_weekend":876,"box_office_average_per_US_Cinema_opening_weekend":5000,"domestic_gross":82.58,"foreign_gross":94.66,"worldwide_gross":177.24,"budget":20,"profitability":886.22,"opening_weekend":4.38},
	{"film":"The Dilemma","studio":"Spyglass Entertainment","rotten_tomatoes":23,"audience_score":31,"story":"Comedy","genre":"Comedy","number_of_theaters_US_opening_weekend":2940,"box_office_average_per_US_Cinema_opening_weekend":6060,"domestic_gross":48.48,"foreign_gross":21.25,"worldwide_gross":69.72,"budget":70,"profitability":99.60,"opening_weekend":17.80},
	{"film":"The Eagle","studio":"Universal","rotten_tomatoes":39,"audience_score":43,"story":"Quest","genre":"Action","number_of_theaters_US_opening_weekend":2296,"box_office_average_per_US_Cinema_opening_weekend":3782,"domestic_gross":19.49,"foreign_gross":7.63,"worldwide_gross":27.12,"budget":25,"profitability":108.48,"opening_weekend":8.68},
	{"film":"The Girl With The Dragon Tattoo","studio":"Sony","rotten_tomatoes":87,"audience_score":89,"story":"","genre":"Thriller","number_of_theaters_US_opening_weekend":2914,"box_office_average_per_US_Cinema_opening_weekend":4382,"domestic_gross":102.06,"foreign_gross":130.101,"worldwide_gross":232.161,"budget":90,"profitability":257.96,"opening_weekend":12.76},
	{"film":"The Green Hornet","studio":"Columbia","rotten_tomatoes":44,"audience_score":47,"story":"Rivalry","genre":"Action","number_of_theaters_US_opening_weekend":3584,"box_office_average_per_US_Cinema_opening_weekend":9335,"domestic_gross":98.78,"foreign_gross":129.04,"worldwide_gross":227.82,"budget":120,"profitability":189.85,"opening_weekend":33.50},
	{"film":"The Hangover Part II","studio":"Legendary Pictures","rotten_tomatoes":35,"audience_score":58,"story":"Comedy","genre":"Comedy","number_of_theaters_US_opening_weekend":3615,"box_office_average_per_US_Cinema_opening_weekend":23775,"domestic_gross":254.46,"foreign_gross":332.30,"worldwide_gross":586.76,"budget":80,"profitability":733.46,"opening_weekend":85.95},
	{"film":"The Help","studio":"DreamWorks Pictures","rotten_tomatoes":75,"audience_score":91,"story":"Maturation","genre":"Drama","number_of_theaters_US_opening_weekend":2534,"box_office_average_per_US_Cinema_opening_weekend":10278,"domestic_gross":169.71,"foreign_gross":46.93,"worldwide_gross":216.64,"budget":25,"profitability":866.56,"opening_weekend":26.04},
	{"film":"The Ides of March","studio":"Columbia","rotten_tomatoes":85,"audience_score":76,"story":"Transformation","genre":"Thriller","number_of_theaters_US_opening_weekend":2199,"box_office_average_per_US_Cinema_opening_weekend":4761,"domestic_gross":40.96,"foreign_gross":35.03,"worldwide_gross":75.99,"budget":12.5,"profitability":607.94,"opening_weekend":10.47},
	{"film":"The Iron Lady","studio":"Weinstein Company","rotten_tomatoes":53,"audience_score":54,"story":"","genre":"Drama","number_of_theaters_US_opening_weekend":802,"box_office_average_per_US_Cinema_opening_weekend":6749,"domestic_gross":30.017,"foreign_gross":84.938,"worldwide_gross":114.955,"budget":13,"profitability":884.27,"opening_weekend":5.41},
	{"film":"The Lincoln Lawyer","studio":"Lionsgate","rotten_tomatoes":84,"audience_score":82,"story":"Fish Out Of Water","genre":"Drama","number_of_theaters_US_opening_weekend":2707,"box_office_average_per_US_Cinema_opening_weekend":4879,"domestic_gross":58.01,"foreign_gross":17.00,"worldwide_gross":75.01,"budget":40,"profitability":187.52,"opening_weekend":13.21},
	{"film":"The Mechanic","studio":"Independent","rotten_tomatoes":53,"audience_score":52,"story":"Revenge","genre":"Action","number_of_theaters_US_opening_weekend":2703,"box_office_average_per_US_Cinema_opening_weekend":4226,"domestic_gross":29.12,"foreign_gross":21.95,"worldwide_gross":51.07,"budget":40,"profitability":127.68,"opening_weekend":11.40},
	{"film":"The Muppets","studio":"Disney","rotten_tomatoes":97,"audience_score":87,"story":"Quest","genre":"Comedy","number_of_theaters_US_opening_weekend":3440,"box_office_average_per_US_Cinema_opening_weekend":8500,"domestic_gross":88.63,"foreign_gross":76.55,"worldwide_gross":165.18,"budget":45,"profitability":367.08,"opening_weekend":29.24},
	{"film":"The Rite","studio":"Warner Bros","rotten_tomatoes":20,"audience_score":43,"story":"Monster Force","genre":"Horror","number_of_theaters_US_opening_weekend":2985,"box_office_average_per_US_Cinema_opening_weekend":4955,"domestic_gross":33.05,"foreign_gross":63.00,"worldwide_gross":96.05,"budget":37,"profitability":259.59,"opening_weekend":14.80},
	{"film":"The Roommate","studio":"Independent","rotten_tomatoes":4,"audience_score":29,"story":"Monster Force","genre":"Horror","number_of_theaters_US_opening_weekend":2534,"box_office_average_per_US_Cinema_opening_weekend":5921,"domestic_gross":37.30,"foreign_gross":3.19,"worldwide_gross":40.49,"budget":16,"profitability":253.08,"opening_weekend":15.00},
	{"film":"The Rum Diary","studio":"Independent","rotten_tomatoes":50,"audience_score":48,"story":"Discovery","genre":"Drama","number_of_theaters_US_opening_weekend":2273,"box_office_average_per_US_Cinema_opening_weekend":2259,"domestic_gross":13.11,"foreign_gross":10.84,"worldwide_gross":23.95,"budget":45,"profitability":53.21,"opening_weekend":5.14},
	{"film":"The Sitter","studio":"Fox","rotten_tomatoes":22,"audience_score":43,"story":"","genre":"Comedy","number_of_theaters_US_opening_weekend":2750,"box_office_average_per_US_Cinema_opening_weekend":2582,"domestic_gross":30.441,"foreign_gross":4.5,"worldwide_gross":34.941,"budget":25,"profitability":139.76,"opening_weekend":9.85},
	{"film":"The Smurfs","studio":"Sony Pictures Animation","rotten_tomatoes":23,"audience_score":50,"story":"Fish Out Of Water","genre":"Animation","number_of_theaters_US_opening_weekend":3395,"box_office_average_per_US_Cinema_opening_weekend":10489,"domestic_gross":142.61,"foreign_gross":421.14,"worldwide_gross":563.75,"budget":110,"profitability":512.50,"opening_weekend":35.61},
	{"film":"The Thing","studio":"Universal","rotten_tomatoes":36,"audience_score":52,"story":"Monster Force","genre":"Horror","number_of_theaters_US_opening_weekend":2996,"box_office_average_per_US_Cinema_opening_weekend":2835,"domestic_gross":16.93,"foreign_gross":10.50,"worldwide_gross":27.43,"budget":38,"profitability":72.18,"opening_weekend":8.49},
	{"film":"The Three Musketeers","studio":"Independent","rotten_tomatoes":24,"audience_score":48,"story":"Rivalry","genre":"Action","number_of_theaters_US_opening_weekend":3017,"box_office_average_per_US_Cinema_opening_weekend":2875,"domestic_gross":20.37,"foreign_gross":111.90,"worldwide_gross":132.27,"budget":75,"profitability":176.37,"opening_weekend":8.67},
	{"film":"The Tree Of Life","studio":"Independent","rotten_tomatoes":84,"audience_score":61,"story":"Discovery","genre":"Drama","number_of_theaters_US_opening_weekend":4,"box_office_average_per_US_Cinema_opening_weekend":93230,"domestic_gross":13.30,"foreign_gross":41.00,"worldwide_gross":54.30,"budget":32,"profitability":169.70,"opening_weekend":0.37},
	{"film":"Thor","studio":"Disney","rotten_tomatoes":77,"audience_score":80,"story":"Monster Force","genre":"Action","number_of_theaters_US_opening_weekend":3955,"box_office_average_per_US_Cinema_opening_weekend":16618,"domestic_gross":181.03,"foreign_gross":268.29,"worldwide_gross":449.32,"budget":150,"profitability":299.55,"opening_weekend":65.72},
	{"film":"Tinker Tailor Soldier Spy","studio":"Focus","rotten_tomatoes":83,"audience_score":68,"story":"","genre":"Thriller","number_of_theaters_US_opening_weekend":809,"box_office_average_per_US_Cinema_opening_weekend":6772,"domestic_gross":24.149,"foreign_gross":56.481,"worldwide_gross":80.63,"budget":21,"profitability":383.95,"opening_weekend":5.47},
	{"film":"Tower Heist","studio":"Relativity","rotten_tomatoes":68,"audience_score":61,"story":"Revenge","genre":"Comedy","number_of_theaters_US_opening_weekend":3367,"box_office_average_per_US_Cinema_opening_weekend":7135,"domestic_gross":78.04,"foreign_gross":74.88,"worldwide_gross":152.92,"budget":75,"profitability":203.90,"opening_weekend":24.03},
	{"film":"Transformers: Dark of the Moon","studio":"DreamWorks Pictures","rotten_tomatoes":35,"audience_score":67,"story":"Quest","genre":"Action","number_of_theaters_US_opening_weekend":4088,"box_office_average_per_US_Cinema_opening_weekend":23937,"domestic_gross":352.39,"foreign_gross":771.40,"worldwide_gross":1123.79,"budget":195,"profitability":576.30,"opening_weekend":97.85},
	{"film":"Twilight: Breaking Dawn","studio":"Independent","rotten_tomatoes":26,"audience_score":68,"story":"Love","genre":"Romance","number_of_theaters_US_opening_weekend":4061,"box_office_average_per_US_Cinema_opening_weekend":34012,"domestic_gross":281.29,"foreign_gross":430.88,"worldwide_gross":712.17,"budget":110,"profitability":647.43,"opening_weekend":138.12},
	{"film":"Unknown","studio":"Independent","rotten_tomatoes":55,"audience_score":57,"story":"The Riddle","genre":"Thriller","number_of_theaters_US_opening_weekend":3043,"box_office_average_per_US_Cinema_opening_weekend":7183,"domestic_gross":63.69,"foreign_gross":67.10,"worldwide_gross":130.79,"budget":30,"profitability":435.95,"opening_weekend":21.86},
	{"film":"War Horse","studio":"Disney","rotten_tomatoes":77,"audience_score":73,"story":"","genre":"Drama","number_of_theaters_US_opening_weekend":2376,"box_office_average_per_US_Cinema_opening_weekend":6114,"domestic_gross":79.884,"foreign_gross":97.7,"worldwide_gross":177.584,"budget":66,"profitability":269.07,"opening_weekend":14.52},
	{"film":"Warrior","studio":"Lionsgate","rotten_tomatoes":83,"audience_score":93,"story":"Rivalry","genre":"Action","number_of_theaters_US_opening_weekend":1869,"box_office_average_per_US_Cinema_opening_weekend":2805,"domestic_gross":13.66,"foreign_gross":9.40,"worldwide_gross":23.06,"budget":25,"profitability":92.23,"opening_weekend":5.24},
	{"film":"Water For Elephants","studio":"20th Century Fox","rotten_tomatoes":60,"audience_score":72,"story":"Love","genre":"Drama","number_of_theaters_US_opening_weekend":2817,"box_office_average_per_US_Cinema_opening_weekend":5979,"domestic_gross":58.71,"foreign_gross":58.39,"worldwide_gross":117.09,"budget":38,"profitability":308.14,"opening_weekend":16.84},
	{"film":"We Bought a Zoo","studio":"Fox","rotten_tomatoes":63,"audience_score":79,"story":"","genre":"Comedy","number_of_theaters_US_opening_weekend":3117,"box_office_average_per_US_Cinema_opening_weekend":3003,"domestic_gross":75.624,"foreign_gross":44.457,"worldwide_gross":120.081,"budget":50,"profitability":240.16,"opening_weekend":9.36},
	{"film":"What's Your Number","studio":"20th Century Fox","rotten_tomatoes":24,"audience_score":50,"story":"Transformation","genre":"Comedy","number_of_theaters_US_opening_weekend":3002,"box_office_average_per_US_Cinema_opening_weekend":1806,"domestic_gross":14.01,"foreign_gross":16.42,"worldwide_gross":30.43,"budget":20,"profitability":152.13,"opening_weekend":5.42},
	{"film":"Winnie The Pooh","studio":"Disney","rotten_tomatoes":91,"audience_score":79,"story":"Quest","genre":"Animation","number_of_theaters_US_opening_weekend":2405,"box_office_average_per_US_Cinema_opening_weekend":3267,"domestic_gross":26.69,"foreign_gross":6.46,"worldwide_gross":33.15,"budget":30,"profitability":110.51,"opening_weekend":7.86},
	{"film":"X-Men: First Class","studio":"Disney","rotten_tomatoes":87,"audience_score":88,"story":"Monster Force","genre":"Action","number_of_theaters_US_opening_weekend":3641,"box_office_average_per_US_Cinema_opening_weekend":15134,"domestic_gross":146.41,"foreign_gross":207.22,"worldwide_gross":353.62,"budget":160,"profitability":221.01,"opening_weekend":55.10},
	{"film":"Your Highness","studio":"Universal","rotten_tomatoes":26,"audience_score":36,"story":"Comedy","genre":"Comedy","number_of_theaters_US_opening_weekend":2769,"box_office_average_per_US_Cinema_opening_weekend":3380,"domestic_gross":21.60,"foreign_gross":3.26,"worldwide_gross":24.86,"budget":49.9,"profitability":49.81,"opening_weekend":9.36},
	{"film":"Zookeeper","studio":"Happy Madison Productions","rotten_tomatoes":14,"audience_score":42,"story":"Comedy","genre":"Comedy","number_of_theaters_US_opening_weekend":3482,"box_office_average_per_US_Cinema_opening_weekend":5763,"domestic_gross":80.36,"foreign_gross":89.49,"worldwide_gross":169.85,"budget":80,"profitability":212.31,"opening_weekend":20.07}]
}
